APScheduler==3.9.1
bleach==4.1.0
django-braces==1.15.0
django-dramatiq==0.11.0
django-reversion==5.0.2
django-sendfile==0.3.11
django-taggit==3.0.0
Django==4.0.8
dramatiq[redis,watch]==1.13.0
easy-thumbnails==2.8.1
Pillow==9.1.1
pytz==2022.4
